# 3ds Max Wavefront OBJ Exporter v0.97b - (c)2007 guruware
# File Created: 12.05.2010 14:48:10

newmtl wire_134059008
	Ns 32
	d 1
	Tr 0
	Tf 1 1 1
	illum 2
	Ka 0.5255 0.2314 0.0314
	Kd 0.5255 0.2314 0.0314
	Ks 0.3500 0.3500 0.3500

newmtl wire_153228184
	Ns 32
	d 1
	Tr 0
	Tf 1 1 1
	illum 2
	Ka 0.6000 0.8941 0.7216
	Kd 0.6000 0.8941 0.7216
	Ks 0.3500 0.3500 0.3500
